{
  "openapi": "3.0.3",
  "info": {
    "title": "API untuk game Rock Paper Scissors",
    "description": "Ini adalah project dari Team 3 Binar FSW-31",
    "version": "1.0"
  },
  "servers": [
    {
      "url": "https://team3-be-rdaniya22.vercel.app/"
    }
  ],
  "paths": {
    "/users/daftar": {
      "post": {
        "tags": [
          "users"
        ],
        "summary": "API untuk registrasi",
        "requestBody": {
          "content": {
            "application/json": {
              "schema": {
                "type": "object",
                "properties": {
                  "username": {
                    "type": "string",
                    "example": "example1"
                  },
                  "email": {
                    "type": "string",
                    "example": "example@gmail.com"
                  },
                  "password": {
                    "type": "string",
                    "example": "examplepassword"
                  }
                }
              }
            }
          }
        },
        "responses": {
          "200": {
            "description": "Registrasi sukses"
          },
          "400": {
            "description": "Registrasi gagal"
          }
        }
      }
    },
    "/game/create-room": {
      "post": {
        "tags": [
          "game"
        ],
        "summary": "API untuk membuat room vs player 2",
        "requestBody": {
          "content": {
            "application/json": {
              "schema": {
                "type": "object",
                "properties": {
                  "player1_id": {
                    "type": "string",
                    "example": "6"
                  },
                  "room_name": {
                    "type": "string",
                    "example": "example room"
                  },
                  "pilihan_p1": {
                    "type": "string",
                    "example": "rock"
                  }
                }
              }
            }
          }
        },
        "responses": {
          "201": {
            "description": "Sukses membuat room"
          },
          "404": {
            "description": "Gagal membuat room"
          },
          "409": {
            "description": "Nama room sudah digunakan"
          }
        }
      }
    }
  }
}